﻿Ergebnisse "German Open" im Kreuzheben, 9. November 2008 / Hamburg
Klasse                                                               Platzierung   Name                               Körpergew.        1. Versuch        2. Versuch        3. Versuch        Gesamtpkt.
Frauen                                                               1. Platz      Anne Schilling       Lüneburg      64,0         kg   85,0         kg   95,0         kg   102,5        kg   137,75
Junioren                                                             1. Platz      Christoph Stürmer    Güstrow       80,0         kg   260,0        kg   270,0        kg   280,0        kg   284,58
bis 23 Jahre                                                         2. Platz      Nando Stoll          Rehna         94,0         kg   270,0        kg   285,0        kg   300,0        kg   268,47
                                                                     3. Platz      Daniel Herold        Lich          82,0         kg   200,0        kg   215,0        kg   225,0        kg   232,65
                                                                     4. Platz      Felix Ebinger        Reiskirchen   96,0         kg   210,0        kg   220,0        kg   240,0        kg   223,68
                                                                     5. Platz      Nikolai Sandimirov   Lüneburg      69,0         kg   180,0        kg   190,0        kg   190,0        kg   217,80
Aktive                                                               1. Platz      Christian Poppe      Saarbrücken   127,5        kg   320,0        kg   340,0        kg   /            kg   290,36
bis 39 Jahre                                                         2. Platz      Maik Lehmann         Stendal       94,0         kg   265,0        kg   285,0        kg   300,0        kg   268,47
                                                                     3. Platz      Sascha Höhl          Werdau        128,0        kg   290,0        kg   310,0        kg   /            kg   264,74
                                                                     4. Platz      Henrik Rilke         Lüneburg      63,0         kg   185,0        kg   195,0        kg   200,0        kg   260,52
                                                                     5. Platz      Alexander Geitner    München       108,0        kg   260,0        kg   285,0        kg   292,5        kg   260,32
                                                                     6. Platz      Matthias Hörning     Stendal       108,5        kg   265,0        kg   280,0        kg   287,5        kg   248,92
                                                                     7. Platz      Timo Rüdiger         Helmstedt     119,0        kg   250,0        kg   265,0        kg   275,0        kg   238,15
                                                                     8. Platz      Erik Knöfler         Leipzig       90,0         kg   220,0        kg   240,0        kg   250,0        kg   232,56
                                                                     9. Platz      Viktor Babenko       Tarp          92,5         kg   230,0        kg   240,0        kg   245,0        kg   228,24
                                                                     10. Platz     Torsten Schüler      Hamburg       108,5        kg   220,0        kg   240,0        kg   255,0        kg   226,69
                                                                     11. Platz     Steffen Schöbel      Stendal       80,0         kg   180,0        kg   195,0        kg   205,0        kg   216,07
Masters                                                              1. Platz      Eric Hähnel          Pfungstadt    121,0        kg   300,0        kg   325,0        kg   /            kg   281,55
ab 40 Jahre                                                          2. Platz      Roland Kurtz         Leverkusen    116,0        kg   230,0        kg   235,0        kg   235,0        kg   200,33
